Intro to Tidyverse
…
It’s a great resource for practicing data wrangling in R.

To get started, load the dataset:

```r
# IMPORT DATA ----
penguins <- read_csv ("data/penguins_raw.csv")

head(penguins) # check the data has loaded, prints first 10 rows of dataframe
#__________________________----
```

```
## # A tibble: 344 × 8
##    species island    bill_length_mm bill_depth_mm flipper_length_mm body_mass_g
##    <fct>   <fct>              <dbl>         <dbl>             <int>       <int>
##  1 Adelie  Torgersen           39.1          18.7               181        3750
##  2 Adelie  Torgersen           39.5          17.4               186        3800
##  3 Adelie  Torgersen           40.3          18                 195        3250
##  4 Adelie  Torgersen           NA            NA                  NA          NA
##  5 Adelie  Torgersen           36.7          19.3               193        3450
##  6 Adelie  Torgersen           39.3          20.6               190        3650
##  7 Adelie  Torgersen           38.9          17.8               181        3625
##  8 Adelie  Torgersen           39.2          19.6               195        4675
##  9 Adelie  Torgersen           34.1          18.1               193        3475
## 10 Adelie  Torgersen           42            20.2               190        4250
## # ℹ 334 more rows
## # ℹ 2 more variables: sex <fct>, year <int>
```
---

## Using select()

Purpose: Choose specific columns from a data frame.

Example:

```r
penguins |> 
  select(species, bill_length_mm, flipper_length_mm)
```

```
## # A tibble: 344 × 3
##    species bill_length_mm flipper_length_mm
##    <fct>            <dbl>             <int>
##  1 Adelie            39.1               181
##  2 Adelie            39.5               186
##  3 Adelie            40.3               195
##  4 Adelie            NA                  NA
##  5 Adelie            36.7               193
##  6 Adelie            39.3               190
##  7 Adelie            38.9               181
##  8 Adelie            39.2               195
##  9 Adelie            34.1               193
## 10 Adelie            42                 190
## # ℹ 334 more rows
```

---

## Using filter()

Purpose: Filter rows based on conditions.

Example:

```r
penguins |> filter(bill_length_mm > 40)
```

```
## # A tibble: 242 × 8
##    species island    bill_length_mm bill_depth_mm flipper_length_mm body_mass_g
##    <fct>   <fct>              <dbl>         <dbl>             <int>       <int>
##  1 Adelie  Torgersen           40.3          18                 195        3250
##  2 Adelie  Torgersen           42            20.2               190        4250
##  3 Adelie  Torgersen           41.1          17.6               182        3200
##  4 Adelie  Torgersen           42.5          20.7               197        4500
##  5 Adelie  Torgersen           46            21.5               194        4200
##  6 Adelie  Biscoe              40.6          18.6               183        3550
##  7 Adelie  Biscoe              40.5          17.9               187        3200
##  8 Adelie  Biscoe              40.5          18.9               180        3950
##  9 Adelie  Dream               40.9          18.9               184        3900
## 10 Adelie  Dream               42.2          18.5               180        3550
## # ℹ 232 more rows
## # ℹ 2 more variables: sex <fct>, year <int>
```

---

## Using mutate()

Purpose: Add or modify columns.

Example:

```r
 penguins |> mutate(bill_length_cm = bill_length_mm / 10)
```

```
## # A tibble: 344 × 9
##    species island    bill_length_mm bill_depth_mm flipper_length_mm body_mass_g
##    <fct>   <fct>              <dbl>         <dbl>             <int>       <int>
##  1 Adelie  Torgersen           39.1          18.7               181        3750
##  2 Adelie  Torgersen           39.5          17.4               186        3800
##  3 Adelie  Torgersen           40.3          18                 195        3250
##  4 Adelie  Torgersen           NA            NA                  NA          NA
##  5 Adelie  Torgersen           36.7          19.3               193        3450
##  6 Adelie  Torgersen           39.3          20.6               190        3650
##  7 Adelie  Torgersen           38.9          17.8               181        3625
##  8 Adelie  Torgersen           39.2          19.6               195        4675
##  9 Adelie  Torgersen           34.1          18.1               193        3475
## 10 Adelie  Torgersen           42            20.2               190        4250
## # ℹ 334 more rows
## # ℹ 3 more variables: sex <fct>, year <int>, bill_length_cm <dbl>
```

---

## Using arrange()

Purpose: Sort rows by specific columns.

Example:

```r
penguins |> arrange(desc(flipper_length_mm))
```

```
## # A tibble: 344 × 8
##    species island bill_length_mm bill_depth_mm flipper_length_mm body_mass_g
##    <fct>   <fct>           <dbl>         <dbl>             <int>       <int>
##  1 Gentoo  Biscoe           54.3          15.7               231        5650
##  2 Gentoo  Biscoe           50            16.3               230        5700
##  3 Gentoo  Biscoe           59.6          17                 230        6050
##  4 Gentoo  Biscoe           49.8          16.8               230        5700
##  5 Gentoo  Biscoe           48.6          16                 230        5800
##  6 Gentoo  Biscoe           52.1          17                 230        5550
##  7 Gentoo  Biscoe           51.5          16.3               230        5500
##  8 Gentoo  Biscoe           55.1          16                 230        5850
##  9 Gentoo  Biscoe           49.5          16.2               229        5800
## 10 Gentoo  Biscoe           49.8          15.9               229        5950
## # ℹ 334 more rows
## # ℹ 2 more variables: sex <fct>, year <int>
```

---

## Using group_by()

Purpose: Group data for summary operations.

Example:

```r
penguins |> group_by(species)
```

```
## # A tibble: 344 × 8
## # Groups:   species [3]
##    species island    bill_length_mm bill_depth_mm flipper_length_mm body_mass_g
##    <fct>   <fct>              <dbl>         <dbl>             <int>       <int>
##  1 Adelie  Torgersen           39.1          18.7               181        3750
##  2 Adelie  Torgersen           39.5          17.4               186        3800
##  3 Adelie  Torgersen           40.3          18                 195        3250
##  4 Adelie  Torgersen           NA            NA                  NA          NA
##  5 Adelie  Torgersen           36.7          19.3               193        3450
##  6 Adelie  Torgersen           39.3          20.6               190        3650
##  7 Adelie  Torgersen           38.9          17.8               181        3625
##  8 Adelie  Torgersen           39.2          19.6               195        4675
##  9 Adelie  Torgersen           34.1          18.1               193        3475
## 10 Adelie  Torgersen           42            20.2               190        4250
## # ℹ 334 more rows
## # ℹ 2 more variables: sex <fct>, year <int>
```
…
## Example Workflow with Palmer Penguins

Wrangle data while preserving the raw dataset:

```r
penguins_cleaned <- penguins |>
  filter(!is.na(bill_length_mm)) |>
  mutate(bill_length_cm = bill_length_mm / 10) |>
  arrange(species)

penguins_cleaned
```

```
## # A tibble: 342 × 9
##    species island    bill_length_mm bill_depth_mm flipper_length_mm body_mass_g
##    <fct>   <fct>              <dbl>         <dbl>             <int>       <int>
##  1 Adelie  Torgersen           39.1          18.7               181        3750
##  2 Adelie  Torgersen           39.5          17.4               186        3800
##  3 Adelie  Torgersen           40.3          18                 195        3250
##  4 Adelie  Torgersen           36.7          19.3               193        3450
##  5 Adelie  Torgersen           39.3          20.6               190        3650
##  6 Adelie  Torgersen           38.9          17.8               181        3625
##  7 Adelie  Torgersen           39.2          19.6               195        4675
##  8 Adelie  Torgersen           34.1          18.1               193        3475
##  9 Adelie  Torgersen           42            20.2               190        4250
## 10 Adelie  Torgersen           37.8          17.1               186        3300
## # ℹ 332 more rows
## # ℹ 3 more variables: sex <fct>, year <int>, bill_length_cm <dbl>
```
…
