GGplot
…
- Dataset from Danielle Navarro

<!-- *********** NEW SLIDE ************** -->
---

```r
# load data
beaches <- read_csv(here("data","sydneybeaches3.csv")) 

# show data
beaches
```

```
## # A tibble: 344 × 12
##    date        year month   day season rainfall temperature enterococci day_num
##    <date>     <dbl> <dbl> <dbl>  <dbl>    <dbl>       <dbl>       <dbl>   <dbl>
##  1 2013-01-02  2013     1     2      1      0          23.4         6.7       2
##  2 2013-01-06  2013     1     6      1      0          30.3         2         6
##  3 2013-01-12  2013     1    12      1      0          31.4        69.1      12
##  4 2013-01-18  2013     1    18      1      0          46.4         9        18
##  5 2013-01-24  2013     1    24      1      0          27.5        33.9      24
##  6 2013-01-30  2013     1    30      1      0.6        26.6        26.5      30
##  7 2013-02-05  2013     2     5      1      0.1        25.7        66.9      36
##  8 2013-02-11  2013     2    11      1      8          22.2       118.       42
##  9 2013-02-17  2013     2    17      1     13.6        26.3        75        48
## 10 2013-02-23  2013     2    23      1      7.2        24.8       311.       54
## # ℹ 334 more rows
## # ℹ 3 more variables: month_num <dbl>, month_name <chr>, season_name <chr>
```
…
