Functions
…
---

## Passing quoted arguments to filter()

```r
penguins |> 
  filter(body_mass_g < 3500)
```

```
## # A tibble: 71 × 8
##    species island    bill_length_mm bill_depth_mm flipper_length_mm body_mass_g
##    <fct>   <fct>              <dbl>         <dbl>             <int>       <int>
##  1 Adelie  Torgersen           40.3          18                 195        3250
##  2 Adelie  Torgersen           36.7          19.3               193        3450
##  3 Adelie  Torgersen           34.1          18.1               193        3475
##  4 Adelie  Torgersen           37.8          17.1               186        3300
##  5 Adelie  Torgersen           41.1          17.6               182        3200
##  6 Adelie  Torgersen           38.7          19                 195        3450
##  7 Adelie  Torgersen           34.4          18.4               184        3325
##  8 Adelie  Biscoe              37.8          18.3               174        3400
##  9 Adelie  Biscoe              40.5          17.9               187        3200
## 10 Adelie  Biscoe              37.9          18.6               172        3150
## # ℹ 61 more rows
## # ℹ 2 more variables: sex <fct>, year <int>
```
…
---

## {{.}} to filter()

```r
filter_function <- function(filter_condition){
  penguins |> 
    filter({{filter_condition}})
}

filter_function(body_mass_g < 3500)
```

```
## # A tibble: 71 × 8
##    species island    bill_length_mm bill_depth_mm flipper_length_mm body_mass_g
##    <fct>   <fct>              <dbl>         <dbl>             <int>       <int>
##  1 Adelie  Torgersen           40.3          18                 195        3250
##  2 Adelie  Torgersen           36.7          19.3               193        3450
##  3 Adelie  Torgersen           34.1          18.1               193        3475
##  4 Adelie  Torgersen           37.8          17.1               186        3300
##  5 Adelie  Torgersen           41.1          17.6               182        3200
##  6 Adelie  Torgersen           38.7          19                 195        3450
##  7 Adelie  Torgersen           34.4          18.4               184        3325
##  8 Adelie  Biscoe              37.8          18.3               174        3400
##  9 Adelie  Biscoe              40.5          17.9               187        3200
## 10 Adelie  Biscoe              37.9          18.6               172        3150
## # ℹ 61 more rows
## # ℹ 2 more variables: sex <fct>, year <int>
```
…
---
## Passing quoted arguments to mutate()

```r
ratio_function <- function(mutate_var1, mutate_var2){
    penguins |> 
        mutate(ratio = .data[[mutate_var1]]/.data[[mutate_var2]])
}

ratio_function("bill_length_mm", "bill_depth_mm")
```

```
## # A tibble: 344 × 9
##    species island    bill_length_mm bill_depth_mm flipper_length_mm body_mass_g
##    <fct>   <fct>              <dbl>         <dbl>             <int>       <int>
##  1 Adelie  Torgersen           39.1          18.7               181        3750
##  2 Adelie  Torgersen           39.5          17.4               186        3800
##  3 Adelie  Torgersen           40.3          18                 195        3250
##  4 Adelie  Torgersen           NA            NA                  NA          NA
##  5 Adelie  Torgersen           36.7          19.3               193        3450
##  6 Adelie  Torgersen           39.3          20.6               190        3650
##  7 Adelie  Torgersen           38.9          17.8               181        3625
##  8 Adelie  Torgersen           39.2          19.6               195        4675
##  9 Adelie  Torgersen           34.1          18.1               193        3475
## 10 Adelie  Torgersen           42            20.2               190        4250
## # ℹ 334 more rows
## # ℹ 3 more variables: sex <fct>, year <int>, ratio <dbl>
```
---

## Using {{}}

```r
ratio_function <- function(mutate_var1, mutate_var2) {
  penguins |> 
    mutate(ratio = {{mutate_var1}} / {{mutate_var2}})
}

ratio_function(bill_length_mm, bill_depth_mm)
```

```
## # A tibble: 344 × 9
##    species island    bill_length_mm bill_depth_mm flipper_length_mm body_mass_g
##    <fct>   <fct>              <dbl>         <dbl>             <int>       <int>
##  1 Adelie  Torgersen           39.1          18.7               181        3750
##  2 Adelie  Torgersen           39.5          17.4               186        3800
##  3 Adelie  Torgersen           40.3          18                 195        3250
##  4 Adelie  Torgersen           NA            NA                  NA          NA
##  5 Adelie  Torgersen           36.7          19.3               193        3450
##  6 Adelie  Torgersen           39.3          20.6               190        3650
##  7 Adelie  Torgersen           38.9          17.8               181        3625
##  8 Adelie  Torgersen           39.2          19.6               195        4675
##  9 Adelie  Torgersen           34.1          18.1               193        3475
## 10 Adelie  Torgersen           42            20.2               190        4250
## # ℹ 334 more rows
## # ℹ 3 more variables: sex <fct>, year <int>, ratio <dbl>
```
…
```r
my_ratio_function <- function(var1, var2) {
  var1 <- ensym(var1)  # Convert input to symbol
  var2 <- ensym(var2)
  penguins |> 
    mutate(ratio = !!var1 / !!var2)  # Unquote and use the symbols
}

# Call with column names
my_ratio_function("bill_length_mm", "bill_depth_mm")
```

```
## # A tibble: 344 × 9
##    species island    bill_length_mm bill_depth_mm flipper_length_mm body_mass_g
##    <fct>   <fct>              <dbl>         <dbl>             <int>       <int>
##  1 Adelie  Torgersen           39.1          18.7               181        3750
##  2 Adelie  Torgersen           39.5          17.4               186        3800
##  3 Adelie  Torgersen           40.3          18                 195        3250
##  4 Adelie  Torgersen           NA            NA                  NA          NA
##  5 Adelie  Torgersen           36.7          19.3               193        3450
##  6 Adelie  Torgersen           39.3          20.6               190        3650
##  7 Adelie  Torgersen           38.9          17.8               181        3625
##  8 Adelie  Torgersen           39.2          19.6               195        4675
##  9 Adelie  Torgersen           34.1          18.1               193        3475
## 10 Adelie  Torgersen           42            20.2               190        4250
## # ℹ 334 more rows
## # ℹ 3 more variables: sex <fct>, year <int>, ratio <dbl>
```

```r
# Call with column names
my_ratio_function(bill_length_mm, bill_depth_mm)
```

```
## # A tibble: 344 × 9
##    species island    bill_length_mm bill_depth_mm flipper_length_mm body_mass_g
##    <fct>   <fct>              <dbl>         <dbl>             <int>       <int>
##  1 Adelie  Torgersen           39.1          18.7               181        3750
##  2 Adelie  Torgersen           39.5          17.4               186        3800
##  3 Adelie  Torgersen           40.3          18                 195        3250
##  4 Adelie  Torgersen           NA            NA                  NA          NA
##  5 Adelie  Torgersen           36.7          19.3               193        3450
##  6 Adelie  Torgersen           39.3          20.6               190        3650
##  7 Adelie  Torgersen           38.9          17.8               181        3625
##  8 Adelie  Torgersen           39.2          19.6               195        4675
##  9 Adelie  Torgersen           34.1          18.1               193        3475
## 10 Adelie  Torgersen           42            20.2               190        4250
## # ℹ 334 more rows
## # ℹ 3 more variables: sex <fct>, year <int>, ratio <dbl>
```
…
